Full_Adder/simulation/qsim/fulladder.msim.vcd
$comment
	File created using the following command:
		vcd file fulladder.msim.vcd -direction
$end
$date
	Mon Jul 13 13:52:10 2026
$end
$version
	Questa Altera Starter FPGA Edition Version 2025.2
$end
$timescale
	1ps
$end

$scope module rca_adder_vhd_vec_tst $end
$var wire 1 ! An [3] $end
$var wire 1 " An [2] $end
$var wire 1 # An [1] $end
$var wire 1 $ An [0] $end
$var wire 1 % Bn [3] $end
$var wire 1 & Bn [2] $end
$var wire 1 ' Bn [1] $end
$var wire 1 ( Bn [0] $end
$var wire 1 ) Cin0 $end
$var wire 1 * Sn [3] $end
$var wire 1 + Sn [2] $end
$var wire 1 , Sn [1] $end
$var wire 1 - Sn [0] $end

$scope module i1 $end
$var wire 1 . gnd $end
$var wire 1 / vcc $end
$var wire 1 0 unknown $end
$var wire 1 1 devoe $end
$var wire 1 2 devclrn $end
$var wire 1 3 devpor $end
$var wire 1 4 ww_devoe $end
$var wire 1 5 ww_devclrn $end
$var wire 1 6 ww_devpor $end
$var wire 1 7 ww_An [3] $end
$var wire 1 8 ww_An [2] $end
$var wire 1 9 ww_An [1] $end
$var wire 1 : ww_An [0] $end
$var wire 1 ; ww_Bn [3] $end
$var wire 1 < ww_Bn [2] $end
$var wire 1 = ww_Bn [1] $end
$var wire 1 > ww_Bn [0] $end
$var wire 1 ? ww_Sn [3] $end
$var wire 1 @ ww_Sn [2] $end
$var wire 1 A ww_Sn [1] $end
$var wire 1 B ww_Sn [0] $end
$var wire 1 C ww_Cin0 $end
$var wire 1 D \Sn[0]~output_o\ $end
$var wire 1 E \Sn[1]~output_o\ $end
$var wire 1 F \Sn[2]~output_o\ $end
$var wire 1 G \Sn[3]~output_o\ $end
$var wire 1 H \Cin0~input_o\ $end
$var wire 1 I \An[0]~input_o\ $end
$var wire 1 J \Bn[0]~input_o\ $end
$var wire 1 K \rca_addergen:0:rca_addergen|Sout~combout\ $end
$var wire 1 L \An[1]~input_o\ $end
$var wire 1 M \Bn[1]~input_o\ $end
$var wire 1 N \rca_addergen:1:rca_addergen|Sout~combout\ $end
$var wire 1 O \rca_addergen:1:rca_addergen|Cout~combout\ $end
$var wire 1 P \An[2]~input_o\ $end
$var wire 1 Q \Bn[2]~input_o\ $end
$var wire 1 R \rca_addergen:2:rca_addergen|Sout~combout\ $end
$var wire 1 S \An[3]~input_o\ $end
$var wire 1 T \Bn[3]~input_o\ $end
$var wire 1 U \rca_addergen:3:rca_addergen|Sout~combout\ $end
$var wire 1 V \rca_addergen:1:rca_addergen|ALT_INV_Cout~combout\ $end
$var wire 1 W \ALT_INV_Bn[3]~input_o\ $end
$var wire 1 X \ALT_INV_An[3]~input_o\ $end
$var wire 1 Y \ALT_INV_An[2]~input_o\ $end
$var wire 1 Z \ALT_INV_Bn[1]~input_o\ $end
$var wire 1 [ \ALT_INV_An[1]~input_o\ $end
$var wire 1 \ \ALT_INV_Bn[0]~input_o\ $end
$var wire 1 ] \ALT_INV_An[0]~input_o\ $end
$var wire 1 ^ \ALT_INV_Cin0~input_o\ $end
$var wire 1 _ \ALT_INV_Bn[2]~input_o\ $end
$upscope $end
$upscope $end
$enddefinitions $end
#0
$dumpvars
0)
0.
1/
x0
11
12
13
14
15
16
0C
1D
0E
1F
1G
0H
0I
1J
1K
1L
1M
0N
1O
0P
0Q
1R
1S
0T
1U
0V
1W
0X
1Y
0Z
0[
0\
1]
1^
1_
1!
0"
1#
0$
0%
0&
1'
1(
17
08
19
0:
0;
0<
1=
1>
1*
1+
0,
1-
1?
1@
0A
1B
$end
#40000
0(
0>
0J
1\
0K
0D
0B
0-
#60000
1"
0#
1$
1%
1&
1:
09
18
1<
1;
1T
1Q
1P
0L
1I
0W
0_
0Y
1[
0]
1K
1N
0O
1V
0R
1E
1D
1A
1B
1-
1,
0F
0@
0+
#80000
0'
0=
0M
1Z
0N
0E
0A
0,
#100000
1'
0"
0$
1=
0:
08
0P
0I
1M
1Y
1]
0Z
0K
1N
1R
0U
0G
1F
1E
0D
0?
1@
1A
0B
0-
1,
1+
0*
#120000
0'
1#
0&
1(
1>
0=
0<
19
1L
0Q
0M
1J
0[
1_
1Z
0\
1K
0R
0F
1D
0@
1B
1-
0+
#140000
1&
1$
0!
1<
1:
07
0S
1I
1Q
1X
0]
0_
1R
0K
0N
1O
1U
0V
0R
0U
1G
0E
0D
1F
1?
0A
0B
1@
0-
0,
1+
1*
0G
0F
0?
0@
0+
0*
#160000
0$
1!
1'
0#
0(
1"
0:
09
18
17
0>
1=
1M
0J
1S
1P
0L
0I
0Z
1\
0X
0Y
1[
1]
1R
1U
1N
0O
1V
0R
1E
1G
1F
1A
1?
1@
1,
1+
1*
0F
0@
0+
#180000
1$
0'
1#
0&
0%
1:
19
0=
0<
0;
0T
0Q
0M
1L
1I
1W
1_
1Z
0[
0]
1K
1R
1F
1D
1@
1B
1-
1+
#200000
1'
1&
0!
0"
1=
1<
08
07
0S
0P
1Q
1M
1X
1Y
0_
0Z
0N
1O
0U
0V
0R
1U
0G
0E
0?
0A
0,
0*
1G
0F
1?
0@
0+
1*
#220000
0$
0#
1%
0:
09
1;
1T
0L
0I
0W
1[
1]
0K
1N
0O
0U
1V
1R
1U
0G
1E
0D
0?
1A
0B
0-
1,
0*
1G
1F
1?
1@
1+
1*
#240000
1#
0%
0'
1!
1"
1(
19
18
17
1>
0=
0;
0T
0M
1J
1S
1P
1L
1W
1Z
0\
0X
0Y
0[
0R
1K
0U
0G
1D
0F
0?
1B
0@
1-
0+
0*
#260000
0#
1%
1'
0!
0(
1$
1:
09
07
0>
1=
1;
1T
1M
0J
0S
0L
1I
0W
0Z
1\
1X
1[
0]
#280000
0&
0<
0Q
1_
1R
1U
1G
1F
1?
1@
1+
1*
#300000
0%
1!
0"
0;
08
17
1S
0P
0T
0X
1Y
1W
0R
0F
0@
0+
#320000
0!
1&
1#
0$
0:
19
07
1<
1Q
0S
1L
0I
0_
1X
0[
1]
0K
0N
1O
1R
0U
0V
0R
1U
0G
1F
0E
0D
0?
1@
0A
0B
0-
0,
1+
0*
1G
0F
1?
0@
0+
1*
#340000
0#
1%
1"
0'
09
18
0=
1;
1T
0M
1P
0L
0W
1Z
0Y
1[
1R
0O
0U
1V
0R
0G
1F
0?
1@
1+
0*
0F
0@
0+
#360000
1#
0"
0&
1$
1(
1:
19
08
1>
0<
0Q
1J
0P
1L
1I
1_
0\
1Y
0[
0]
1O
1U
0V
1R
1G
1?
1*
1F
1@
1+
#380000
1"
1&
0(
1'
1!
18
17
0>
1=
1<
1Q
1M
0J
1S
1P
0_
0Z
1\
0X
0Y
1K
1D
1B
1-
#400000
0"
0&
1(
0#
0$
0:
09
08
1>
0<
0Q
1J
0P
0L
0I
1_
0\
1Y
1[
1]
1N
0O
0U
1V
0R
0G
1E
0?
1A
1,
0*
0F
0@
0+
#420000
1"
0(
1#
1$
0'
0!
0%
1:
19
18
07
0>
0=
0;
0T
0M
0J
0S
1P
1L
1I
1W
1Z
1\
1X
0Y
0[
0]
1R
1F
1@
1+
#440000
0"
1(
0#
0$
1'
1!
0:
09
08
17
1>
1=
1M
1J
1S
0P
0L
0I
0Z
0\
0X
1Y
1[
1]
0R
1U
1G
0F
1?
0@
0+
1*
#460000
1"
0(
0'
0!
1%
18
07
0>
0=
1;
1T
0M
0J
0S
1P
0W
1Z
1\
1X
0Y
1R
0K
0N
0E
0D
1F
0A
0B
1@
0-
0,
1+
#480000
1(
1'
0%
1$
1&
1>
1=
1<
0;
1:
1I
0T
1Q
1M
1J
0]
1W
0_
0Z
0\
0R
1O
0V
1R
0F
0@
0+
1F
1@
1+
#500000
0$
0:
0I
1]
1K
1N
0O
1V
0R
1E
1D
1A
1B
1-
1,
0F
0@
0+
#520000
1$
0(
0'
0&
1#
1:
19
0>
0=
0<
0Q
0M
0J
1L
1I
1_
1Z
1\
0[
0]
1R
0U
0G
1F
0?
1@
1+
0*
#540000
0$
1&
0#
0:
09
1<
1Q
0L
0I
0_
1[
1]
0K
0N
0R
1U
1G
0F
0E
0D
1?
0@
0A
0B
0-
0,
0+
1*
#560000
1$
0&
1#
1(
1'
1%
0"
1:
19
08
1>
1=
0<
1;
1T
0Q
1M
1J
0P
1L
1I
0W
1_
0Z
0\
1Y
0[
0]
1N
1O
0V
1R
1E
1A
1,
1F
1@
1+
#580000
0$
0(
0%
1!
0:
17
0>
0;
0T
0J
1S
0I
1W
1\
0X
1]
0N
0E
0A
0,
#600000
1(
1"
1>
18
1P
1J
0Y
0\
1K
0R
0U
0G
0F
1D
0?
0@
1B
1-
0+
0*
#620000
0"
0#
09
08
0P
0L
1Y
1[
1N
0O
1R
1U
1V
0R
1G
1F
1E
1?
1@
1A
1,
1+
1*
0F
0@
0+
#640000
1"
1#
1&
0'
19
18
0=
1<
1Q
0M
1P
1L
0_
1Z
0Y
0[
0U
0G
0?
0*
#660000
0(
1$
1%
0>
1;
1:
1I
1T
0J
0]
0W
1\
1U
1G
1?
1*
#680000
0$
0%
0"
0#
0:
09
08
0;
0T
0P
0L
0I
1W
1Y
1[
1]
0K
0N
1R
1F
0E
0D
1@
0A
0B
0-
0,
1+
#700000
1"
1#
0&
1'
0!
19
18
07
1=
0<
0Q
1M
0S
1P
1L
1_
0Z
1X
0Y
0[
1O
0U
0V
0R
1U
0G
0?
0*
1G
0F
1?
0@
0+
1*
#720000
0#
1&
0'
1!
1$
1%
1(
1:
09
17
1>
0=
1<
1;
1T
1Q
0M
1J
1S
0L
1I
0W
0_
1Z
0\
0X
1[
0]
1N
0O
1R
1V
0R
1F
1E
1@
1A
1,
1+
0F
0@
0+
#740000
0!
0$
0%
0(
0:
07
0>
0;
0T
0J
0S
0I
1W
1\
1X
1]
0N
0E
0A
0,
#760000
1!
1$
1%
1(
1#
1'
1:
19
17
1>
1=
1;
1T
1M
1J
1S
1L
1I
0W
0Z
0\
0X
0[
0]
1N
1O
0V
1R
1E
1A
1,
1F
1@
1+
#780000
0!
0#
09
07
0S
0L
1X
1[
0N
0U
0G
0E
0?
0A
0,
0*
#800000
0$
0%
0'
0"
0:
08
0=
0;
0T
0M
0P
0I
1W
1Z
1Y
1]
1K
0R
0O
1U
1V
1R
0U
1G
0F
1D
1?
0@
1B
1-
0+
1*
0G
1F
0?
1@
1+
0*
#820000
1%
1'
1!
0(
0>
1=
1;
17
1S
1T
1M
0J
0X
0W
0Z
1\
0K
1N
1E
0D
1A
0B
0-
1,
#840000
0%
0'
0!
1$
1"
1#
0=
0;
1:
19
18
07
0S
1P
1L
1I
0T
0M
1X
0Y
0[
0]
1W
1Z
1K
0R
1U
1G
0F
1D
1?
0@
1B
1-
0+
1*
#860000
1%
1'
0"
0#
1(
1>
1=
1;
09
08
0P
0L
1T
1M
1J
1Y
1[
0W
0Z
0\
0K
0N
1O
1R
0V
0R
0U
1F
0E
0D
1@
0A
0B
0-
0,
1+
0G
0F
0?
0@
0+
0*
#880000
0'
1#
0(
0&
0>
0=
0<
19
1L
0Q
0M
0J
0[
1_
1Z
1\
1K
1R
1U
1N
0O
1V
0R
1E
1G
1F
1D
1A
1?
1@
1B
1-
1,
1+
1*
0F
0@
0+
#900000
1'
0#
1(
1>
1=
09
0L
1M
1J
1[
0Z
0\
0K
0N
1O
0V
1R
0E
0D
0A
0B
0-
0,
1F
1@
1+
#920000
1&
1!
1<
17
1S
1Q
0X
0_
0R
0F
0@
0+
#940000
0&
0!
0'
0(
1"
0$
0>
0=
0<
0:
18
07
0S
1P
0I
0Q
0M
0J
1X
0Y
1]
1_
1Z
1\
0O
0U
1V
1R
1U
0G
0?
0*
1G
1F
1?
1@
1+
1*
#960000
1&
1$
1<
1:
1I
1Q
0]
0_
0R
0U
1K
1D
0G
0F
1B
0?
0@
1-
0+
0*
#980000
0&
0$
1!
1'
0"
1#
1=
0<
0:
19
08
17
1S
0P
1L
0I
0Q
1M
0X
1Y
0[
1]
1_
0Z
0K
1O
0V
1R
0D
0B
0-
1F
1@
1+
