Full_Adder/simulation/qsim/fulladder.msim.vcd
$comment
	File created using the following command:
		vcd file fulladder.msim.vcd -direction
$end
$date
	Fri Jul 10 18:33:29 2026
$end
$version
	Questa Altera Starter FPGA Edition Version 2025.2
$end
$timescale
	1ps
$end

$scope module fulladder_vhd_vec_tst $end
$var wire 1 ! A $end
$var wire 1 " B $end
$var wire 1 # Cin $end
$var wire 1 $ Cout $end
$var wire 1 % Sout $end

$scope module i1 $end
$var wire 1 & gnd $end
$var wire 1 ' vcc $end
$var wire 1 ( unknown $end
$var wire 1 ) devoe $end
$var wire 1 * devclrn $end
$var wire 1 + devpor $end
$var wire 1 , ww_devoe $end
$var wire 1 - ww_devclrn $end
$var wire 1 . ww_devpor $end
$var wire 1 / ww_A $end
$var wire 1 0 ww_B $end
$var wire 1 1 ww_Cin $end
$var wire 1 2 ww_Sout $end
$var wire 1 3 ww_Cout $end
$var wire 1 4 \Sout~output_o\ $end
$var wire 1 5 \Cout~output_o\ $end
$var wire 1 6 \A~input_o\ $end
$var wire 1 7 \B~input_o\ $end
$var wire 1 8 \Cin~input_o\ $end
$var wire 1 9 \Sout~0_combout\ $end
$var wire 1 : \Cout~0_combout\ $end
$var wire 1 ; \ALT_INV_Cin~input_o\ $end
$var wire 1 < \ALT_INV_B~input_o\ $end
$var wire 1 = \ALT_INV_A~input_o\ $end
$upscope $end
$upscope $end
$enddefinitions $end
#0
$dumpvars
0!
0"
0#
0$
0%
0&
1'
x(
1)
1*
1+
1,
1-
1.
0/
00
01
02
03
04
05
06
07
08
09
0:
1;
1<
1=
$end
#20000
1#
11
18
0;
19
14
12
1%
#40000
0#
1"
01
10
17
08
0<
1;
#60000
1#
11
18
0;
09
1:
15
04
13
02
1$
0%
#80000
0#
0"
1!
01
00
1/
16
07
08
0=
1<
1;
19
0:
05
14
03
12
0$
1%
#100000
1#
11
18
0;
09
1:
15
04
13
02
1$
0%
#120000
0#
1"
01
10
17
08
0<
1;
#140000
1#
11
18
0;
19
14
12
1%
#160000
0#
0"
0!
01
00
0/
06
07
08
1=
1<
1;
09
0:
05
04
03
02
0$
0%
#180000
1#
11
18
0;
19
14
12
1%
#200000
0#
1"
01
10
17
08
0<
1;
#220000
1#
11
18
0;
09
1:
15
04
13
02
1$
0%
#240000
0#
0"
1!
01
00
1/
16
07
08
0=
1<
1;
19
0:
05
14
03
12
0$
1%
#260000
1#
11
18
0;
09
1:
15
04
13
02
1$
0%
#280000
0#
1"
01
10
17
08
0<
1;
#300000
1#
11
18
0;
19
14
12
1%
#320000
0#
0"
0!
01
00
0/
06
07
08
1=
1<
1;
09
0:
05
04
03
02
0$
0%
#340000
1#
11
18
0;
19
14
12
1%
#360000
0#
1"
01
10
17
08
0<
1;
#380000
1#
11
18
0;
09
1:
15
04
13
02
1$
0%
#400000
0#
0"
1!
01
00
1/
16
07
08
0=
1<
1;
19
0:
05
14
03
12
0$
1%
#420000
1#
11
18
0;
09
1:
15
04
13
02
1$
0%
#440000
0#
1"
01
10
17
08
0<
1;
#460000
1#
11
18
0;
19
14
12
1%
#480000
0#
0"
0!
01
00
0/
06
07
08
1=
1<
1;
09
0:
05
04
03
02
0$
0%
#500000
1#
11
18
0;
19
14
12
1%
#520000
0#
1"
01
10
17
08
0<
1;
#540000
1#
11
18
0;
09
1:
15
04
13
02
1$
0%
#560000
0#
0"
1!
01
00
1/
16
07
08
0=
1<
1;
19
0:
05
14
03
12
0$
1%
#580000
1#
11
18
0;
09
1:
15
04
13
02
1$
0%
#600000
0#
1"
01
10
17
08
0<
1;
#620000
1#
11
18
0;
19
14
12
1%
#640000
0#
0"
0!
01
00
0/
06
07
08
1=
1<
1;
09
0:
05
04
03
02
0$
0%
#660000
1#
11
18
0;
19
14
12
1%
#680000
0#
1"
01
10
17
08
0<
1;
#700000
1#
11
18
0;
09
1:
15
04
13
02
1$
0%
#720000
0#
0"
1!
01
00
1/
16
07
08
0=
1<
1;
19
0:
05
14
03
12
0$
1%
#740000
1#
11
18
0;
09
1:
15
04
13
02
1$
0%
#760000
0#
1"
01
10
17
08
0<
1;
#780000
1#
11
18
0;
19
14
12
1%
#800000
0#
0"
0!
01
00
0/
06
07
08
1=
1<
1;
09
0:
05
04
03
02
0$
0%
#820000
1#
11
18
0;
19
14
12
1%
#840000
0#
1"
01
10
17
08
0<
1;
#860000
1#
11
18
0;
09
1:
15
04
13
02
1$
0%
#880000
0#
0"
1!
01
00
1/
16
07
08
0=
1<
1;
19
0:
05
14
03
12
0$
1%
#900000
1#
11
18
0;
09
1:
15
04
13
02
1$
0%
#920000
0#
1"
01
10
17
08
0<
1;
#940000
1#
11
18
0;
19
14
12
1%
#960000
0#
0"
0!
01
00
0/
06
07
08
1=
1<
1;
09
0:
05
04
03
02
0$
0%
#980000
1#
11
18
0;
19
14
12
1%
